plasma.vcd
$date
  Mon Dec 13 09:20:26 2010
$end
$version
  GHDL v0
$end
$timescale
  1 fs
$end
$var reg 1 ! clk $end
$var reg 1 " reset $end
$var reg 1 # resetn $end
$var reg 1 $ txd $end
$var reg 1 % rts $end
$var reg 1 & cts $end
$var reg 1 ' cts_one $end
$var reg 1 ( rxd $end
$var reg 1 ) rxd_null $end
$var reg 1 * sram_we_hi $end
$var reg 1 + sram_we_lo $end
$var reg 1 , sram_ce_hi $end
$var reg 1 - sram_ce_lo $end
$var reg 1 . sram_oe_hi $end
$var reg 1 / sram_oe_lo $end
$var reg 19 0 sram_address_hi[18:0] $end
$var reg 19 1 sram_address_lo[18:0] $end
$var reg 16 2 sram_data_hi[15:0] $end
$var reg 16 3 sram_data_lo[15:0] $end
$var reg 4 4 mem_byte_sel[3:0] $end
$var reg 1 5 mem_write $end
$var reg 32 6 mem_address[31:0] $end
$var reg 32 7 mem_data_w[31:0] $end
$var reg 32 8 mem_data_r[31:0] $end
$var reg 4 9 uart_mem_byte_sel[3:0] $end
$var reg 1 : uart_mem_write $end
$var reg 32 ; uart_mem_address[31:0] $end
$var reg 32 < uart_mem_data_w[31:0] $end
$var reg 32 = uart_mem_data_r[31:0] $end
$var reg 1 > uart_mem_pause $end
$var reg 8 ? uart_dbg[7:0] $end
$scope module t1_cpu $end
$var reg 1 @ board_clk $end
$var reg 1 A board_res $end
$var reg 1 B board_txd $end
$var reg 1 C board_rts $end
$var reg 1 D board_cts $end
$var reg 1 E board_rxd $end
$var reg 1 F sram_we_hi $end
$var reg 1 G sram_we_lo $end
$var reg 1 H sram_ce_hi $end
$var reg 1 I sram_ce_lo $end
$var reg 1 J sram_oe_hi $end
$var reg 1 K sram_oe_lo $end
$var reg 19 L sram_address_hi[18:0] $end
$var reg 19 M sram_address_lo[18:0] $end
$var reg 16 N sram_data_hi[15:0] $end
$var reg 16 O sram_data_lo[15:0] $end
$var reg 8 P board_leds[7:0] $end
$var reg 1 Q reset $end
$var reg 32 R mem_address[31:0] $end
$var reg 32 S mem_data_r[31:0] $end
$var reg 32 T mem_data_w[31:0] $end
$var reg 4 U mem_byte_sel[3:0] $end
$var reg 1 V mem_write $end
$var reg 1 W mem_pause $end
$var reg 1 X sram_pause $end
$var reg 1 Y uart_pause $end
$var reg 1 Z zero $end
$scope module u1_cpu $end
$var reg 1 [ clk $end
$var reg 1 \ reset_in $end
$var reg 1 ] intr_in $end
$var reg 32 ^ mem_address[31:0] $end
$var reg 32 _ mem_data_w[31:0] $end
$var reg 32 ` mem_data_r[31:0] $end
$var reg 4 a mem_byte_sel[3:0] $end
$var reg 1 b mem_write $end
$var reg 1 c mem_pause $end
$var reg 32 d opcode[31:0] $end
$var reg 6 e rs_index[5:0] $end
$var reg 6 f rt_index[5:0] $end
$var reg 6 g rd_index[5:0] $end
$var reg 6 h rd_indexd[5:0] $end
$var reg 32 i reg_source[31:0] $end
$var reg 32 j reg_target[31:0] $end
$var reg 32 k reg_dest[31:0] $end
$var reg 32 l reg_destd[31:0] $end
$var reg 32 m a_bus[31:0] $end
$var reg 32 n a_busd[31:0] $end
$var reg 32 o b_bus[31:0] $end
$var reg 32 p b_busd[31:0] $end
$var reg 32 q c_bus[31:0] $end
$var reg 32 r c_alu[31:0] $end
$var reg 32 s c_shift[31:0] $end
$var reg 32 t c_mult[31:0] $end
$var reg 32 u c_memory[31:0] $end
$var reg 16 v imm[15:0] $end
$var reg 32 w pc[31:0] $end
$var reg 32 x pc_plus4[31:0] $end
$var reg 4 y alu_func[3:0] $end
$var reg 4 z alu_funcd[3:0] $end
$var reg 2 { shift_func[1:0] $end
$var reg 2 | shift_funcd[1:0] $end
$var reg 4 } mult_func[3:0] $end
$var reg 4 !" mult_funcd[3:0] $end
$var reg 3 "" branch_func[2:0] $end
$var reg 1 #" take_branch $end
$var reg 2 $" a_source[1:0] $end
$var reg 2 %" b_source[1:0] $end
$var reg 3 &" c_source[2:0] $end
$var reg 2 '" pc_source[1:0] $end
$var reg 4 (" mem_source[3:0] $end
$var reg 1 )" pause_mult $end
$var reg 1 *" pause_ctrl $end
$var reg 1 +" pause_pipeline $end
$var reg 1 ," pause_any $end
$var reg 1 -" pause_non_ctrl $end
$var reg 1 ." pause_bank $end
$var reg 1 /" nullify_op $end
$var reg 1 0" intr_enable $end
$var reg 1 1" intr_signal $end
$var reg 4 2" reset_reg[3:0] $end
$var reg 1 3" reset $end
$scope module u1_pc_next $end
$var reg 1 4" clk $end
$var reg 1 5" reset_in $end
$var reg 30 6" pc_new[31:2] $end
$var reg 1 7" take_branch $end
$var reg 1 8" pause_in $end
$var reg 26 9" opcode25_0[25:0] $end
$var reg 2 :" pc_source[1:0] $end
$var reg 32 ;" pc_out[31:0] $end
$var reg 32 <" pc_out_plus4[31:0] $end
$var reg 30 =" pc_reg[31:2] $end
$upscope $end
$scope module u2_mem_ctrl $end
$var reg 1 >" clk $end
$var reg 1 ?" reset_in $end
$var reg 1 @" pause_in $end
$var reg 1 A" nullify_op $end
$var reg 32 B" address_pc[31:0] $end
$var reg 32 C" opcode_out[31:0] $end
$var reg 32 D" address_data[31:0] $end
$var reg 4 E" mem_source[3:0] $end
$var reg 32 F" data_write[31:0] $end
$var reg 32 G" data_read[31:0] $end
$var reg 1 H" pause_out $end
$var reg 32 I" mem_address[31:0] $end
$var reg 32 J" mem_data_w[31:0] $end
$var reg 32 K" mem_data_r[31:0] $end
$var reg 4 L" mem_byte_sel[3:0] $end
$var reg 1 M" mem_write $end
$var reg 32 N" opcode_reg[31:0] $end
$var reg 32 O" next_opcode_reg[31:0] $end
$var reg 2 P" mem_state_reg[1:0] $end
$var reg 32 Q" address_reg[31:0] $end
$var reg 1 R" write_reg $end
$var reg 4 S" byte_sel_reg[3:0] $end
$upscope $end
$scope module u3_control $end
$var reg 32 T" opcode[31:0] $end
$var reg 1 U" intr_signal $end
$var reg 6 V" rs_index[5:0] $end
$var reg 6 W" rt_index[5:0] $end
$var reg 6 X" rd_index[5:0] $end
$var reg 16 Y" imm_out[15:0] $end
$var reg 4 Z" alu_func[3:0] $end
$var reg 2 [" shift_func[1:0] $end
$var reg 4 \" mult_func[3:0] $end
$var reg 3 ]" branch_func[2:0] $end
$var reg 2 ^" a_source_out[1:0] $end
$var reg 2 _" b_source_out[1:0] $end
$var reg 3 `" c_source_out[2:0] $end
$var reg 2 a" pc_source_out[1:0] $end
$var reg 4 b" mem_source_out[3:0] $end
$upscope $end
$scope module u4_reg_bank $end
$var reg 1 c" clk $end
$var reg 1 d" reset_in $end
$var reg 1 e" pause $end
$var reg 6 f" rs_index[5:0] $end
$var reg 6 g" rt_index[5:0] $end
$var reg 6 h" rd_index[5:0] $end
$var reg 32 i" reg_source_out[31:0] $end
$var reg 32 j" reg_target_out[31:0] $end
$var reg 32 k" reg_dest_new[31:0] $end
$var reg 1 l" intr_enable $end
$var reg 1 m" intr_enable_reg $end
$var reg 5 n" addr_a1[4:0] $end
$var reg 5 o" addr_a2[4:0] $end
$var reg 5 p" addr_b[4:0] $end
$var reg 32 q" data_out1[31:0] $end
$var reg 32 r" data_out2[31:0] $end
$var reg 1 s" write_enable $end
$upscope $end
$scope module u5_bus_mux $end
$var reg 16 t" imm_in[15:0] $end
$var reg 32 u" reg_source[31:0] $end
$var reg 2 v" a_mux[1:0] $end
$var reg 32 w" a_out[31:0] $end
$var reg 32 x" reg_target[31:0] $end
$var reg 2 y" b_mux[1:0] $end
$var reg 32 z" b_out[31:0] $end
$var reg 32 {" c_bus[31:0] $end
$var reg 32 |" c_memory[31:0] $end
$var reg 32 }" c_pc[31:0] $end
$var reg 32 !# c_pc_plus4[31:0] $end
$var reg 3 "# c_mux[2:0] $end
$var reg 32 ## reg_dest_out[31:0] $end
$var reg 3 $# branch_func[2:0] $end
$var reg 1 %# take_branch $end
$upscope $end
$scope module u6_alu $end
$var reg 32 &# a_in[31:0] $end
$var reg 32 '# b_in[31:0] $end
$var reg 4 (# alu_function[3:0] $end
$var reg 32 )# c_alu[31:0] $end
$var reg 33 *# aa[32:0] $end
$var reg 33 +# bb[32:0] $end
$var reg 33 ,# sum[32:0] $end
$var reg 1 -# do_add $end
$upscope $end
$scope module u7_shifter $end
$var reg 32 .# value[31:0] $end
$var reg 5 /# shift_amount[4:0] $end
$var reg 2 0# shift_func[1:0] $end
$var reg 32 1# c_shift[31:0] $end
$upscope $end
$scope module u8_mult $end
$var reg 1 2# clk $end
$var reg 32 3# a[31:0] $end
$var reg 32 4# b[31:0] $end
$var reg 4 5# mult_func[3:0] $end
$var reg 32 6# c_mult[31:0] $end
$var reg 1 7# pause_out $end
$var reg 1 8# do_mult_reg $end
$var reg 1 9# do_signed_reg $end
$var reg 6 :# count_reg[5:0] $end
$var reg 32 ;# reg_a[31:0] $end
$var reg 64 <# reg_b[63:0] $end
$var reg 32 =# answer_reg[31:0] $end
$var reg 34 ># aa[33:0] $end
$var reg 34 ?# bb[33:0] $end
$var reg 34 @# sum[33:0] $end
$var reg 34 A# reg_a_times3[33:0] $end
$upscope $end
$scope module u9_pipeline $end
$var reg 1 B# clk $end
$var reg 1 C# reset $end
$var reg 32 D# a_bus[31:0] $end
$var reg 32 E# a_busd[31:0] $end
$var reg 32 F# b_bus[31:0] $end
$var reg 32 G# b_busd[31:0] $end
$var reg 4 H# alu_func[3:0] $end
$var reg 4 I# alu_funcd[3:0] $end
$var reg 2 J# shift_func[1:0] $end
$var reg 2 K# shift_funcd[1:0] $end
$var reg 4 L# mult_func[3:0] $end
$var reg 4 M# mult_funcd[3:0] $end
$var reg 32 N# reg_dest[31:0] $end
$var reg 32 O# reg_destd[31:0] $end
$var reg 6 P# rd_index[5:0] $end
$var reg 6 Q# rd_indexd[5:0] $end
$var reg 6 R# rs_index[5:0] $end
$var reg 6 S# rt_index[5:0] $end
$var reg 2 T# pc_source[1:0] $end
$var reg 4 U# mem_source[3:0] $end
$var reg 2 V# a_source[1:0] $end
$var reg 2 W# b_source[1:0] $end
$var reg 3 X# c_source[2:0] $end
$var reg 32 Y# c_bus[31:0] $end
$var reg 1 Z# pause_any $end
$var reg 1 [# pause_pipeline $end
$var reg 6 \# rd_index_reg[5:0] $end
$var reg 32 ]# reg_dest_reg[31:0] $end
$var reg 3 ^# c_source_reg[2:0] $end
$var reg 1 _# pause_enable_reg $end
$upscope $end
$upscope $end
$scope module u2_conv $end
$var reg 1 `# clk $end
$var reg 4 a# mem_byte_sel[3:0] $end
$var reg 1 b# mem_write $end
$var reg 32 c# mem_address[31:0] $end
$var reg 32 d# mem_data_w[31:0] $end
$var reg 32 e# mem_data_r[31:0] $end
$var reg 1 f# mem_pause $end
$var reg 1 g# sram_we_hi $end
$var reg 1 h# sram_we_lo $end
$var reg 1 i# sram_ce_hi $end
$var reg 1 j# sram_ce_lo $end
$var reg 1 k# sram_oe_hi $end
$var reg 1 l# sram_oe_lo $end
$var reg 19 m# sram_address_hi[18:0] $end
$var reg 19 n# sram_address_lo[18:0] $end
$var reg 16 o# sram_data_hi[15:0] $end
$var reg 16 p# sram_data_lo[15:0] $end
$var reg 32 q# data[31:0] $end
$var reg 32 r# output[31:0] $end
$comment state is not handled $end
$comment next_state is not handled $end
$upscope $end
$scope module u3_uart $end
$var reg 1 s# clk $end
$var reg 1 t# reset $end
$var reg 4 u# mem_byte_sel[3:0] $end
$var reg 1 v# mem_write $end
$var reg 32 w# mem_address[31:0] $end
$var reg 32 x# mem_data_w[31:0] $end
$var reg 32 y# mem_data_r[31:0] $end
$var reg 1 z# mem_pause $end
$var reg 1 {# txd $end
$var reg 1 |# rts $end
$var reg 1 }# cts $end
$var reg 1 !$ rxd $end
$var reg 8 "$ dbg[7:0] $end
$var reg 8 #$ txdata[7:0] $end
$var reg 1 $$ te $end
$var reg 1 %$ txdone $end
$var reg 1 &$ txnd $end
$var reg 8 '$ rdata[7:0] $end
$var reg 1 ($ rdready $end
$var reg 1 )$ rdack $end
$var reg 8 *$ void[7:0] $end
$var reg 32 +$ data[31:0] $end
$comment state is not handled $end
$comment next_state is not handled $end
$scope module uart_module $end
$var reg 1 ,$ reset $end
$var reg 1 -$ clk $end
$var reg 1 .$ uarto_rtsn $end
$var reg 1 /$ uarto_txd $end
$var reg 1 0$ uarti_ctsn $end
$var reg 1 1$ uarti_rxd $end
$var reg 8 2$ txdata[7:0] $end
$var reg 1 3$ te $end
$var reg 1 4$ txdone $end
$var reg 1 5$ txnd $end
$var reg 8 6$ rdata[7:0] $end
$var reg 1 7$ rdready $end
$var reg 1 8$ rdack $end
$var reg 8 9$ dbg[7:0] $end
$comment r is not handled $end
$comment rin is not handled $end
$upscope $end
$upscope $end
$upscope $end
$scope module t2_sram2mlite $end
$var reg 1 :$ clk $end
$var reg 4 ;$ mem_byte_sel[3:0] $end
$var reg 1 <$ mem_write $end
$var reg 32 =$ mem_address[31:0] $end
$var reg 32 >$ mem_data_w[31:0] $end
$var reg 32 ?$ mem_data_r[31:0] $end
$var reg 1 @$ sram_we_hi $end
$var reg 1 A$ sram_we_lo $end
$var reg 1 B$ sram_ce_hi $end
$var reg 1 C$ sram_ce_lo $end
$var reg 1 D$ sram_oe_hi $end
$var reg 1 E$ sram_oe_lo $end
$var reg 19 F$ sram_address_hi[18:0] $end
$var reg 19 G$ sram_address_lo[18:0] $end
$var reg 16 H$ sram_data_hi[15:0] $end
$var reg 16 I$ sram_data_lo[15:0] $end
$upscope $end
$scope module t3_ram $end
$var reg 1 J$ clk $end
$var reg 4 K$ mem_byte_sel[3:0] $end
$var reg 1 L$ mem_write $end
$var reg 32 M$ mem_address[31:0] $end
$var reg 32 N$ mem_data_w[31:0] $end
$var reg 32 O$ mem_data_r[31:0] $end
$var reg 1 P$ clk_inv $end
$var reg 1 Q$ mem_sel $end
$var reg 1 R$ read_enable $end
$var reg 4 S$ write_byte_enable[3:0] $end
$upscope $end
$scope module t4_uart $end
$var reg 1 T$ clk $end
$var reg 1 U$ reset $end
$var reg 4 V$ mem_byte_sel[3:0] $end
$var reg 1 W$ mem_write $end
$var reg 32 X$ mem_address[31:0] $end
$var reg 32 Y$ mem_data_w[31:0] $end
$var reg 32 Z$ mem_data_r[31:0] $end
$var reg 1 [$ mem_pause $end
$var reg 1 \$ txd $end
$var reg 1 ]$ rts $end
$var reg 1 ^$ cts $end
$var reg 1 _$ rxd $end
$var reg 8 `$ dbg[7:0] $end
$var reg 8 a$ txdata[7:0] $end
$var reg 1 b$ te $end
$var reg 1 c$ txdone $end
$var reg 1 d$ txnd $end
$var reg 8 e$ rdata[7:0] $end
$var reg 1 f$ rdready $end
$var reg 1 g$ rdack $end
$var reg 8 h$ void[7:0] $end
$var reg 32 i$ data[31:0] $end
$comment state is not handled $end
$comment next_state is not handled $end
$scope module uart_module $end
$var reg 1 j$ reset $end
$var reg 1 k$ clk $end
$var reg 1 l$ uarto_rtsn $end
$var reg 1 m$ uarto_txd $end
$var reg 1 n$ uarti_ctsn $end
$var reg 1 o$ uarti_rxd $end
$var reg 8 p$ txdata[7:0] $end
$var reg 1 q$ te $end
$var reg 1 r$ txdone $end
$var reg 1 s$ txnd $end
$var reg 8 t$ rdata[7:0] $end
$var reg 1 u$ rdready $end
$var reg 1 v$ rdack $end
$var reg 8 w$ dbg[7:0] $end
$comment r is not handled $end
$comment rin is not handled $end
$upscope $end
$upscope $end
$enddefinitions $end
#0
1!
1"
0#
U$
U%
U&
0'
U(
1)
1*
1+
0,
0-
0.
0/
b0000000000000000000 0
b0000000000000000000 1
bUUUUUUUUUUUUUUUU 2
bUUUUUUUUUUUUUUUU 3
b0000 4
05
b00000000000000000000000000000000 6
bZZZZZZZZZZZZZZZZZZZZZZZZZZZZZZZZ 7
bUUUUUUUUUUUUUUUUUUUUUUUUUUUUUUUU 8
b1111 9
1:
b00000000000010000000000000000000 ;
b00000000000000000000000000100000 <
bZZZZZZZZZZZZZZZZZZZZZZZZZZZZZZZZ =
1>
bUUUUUUUU ?
1@
0A
UB
UC
0D
1E
1F
1G
0H
0I
0J
0K
b0000000000000000000 L
b0000000000000000000 M
bUUUUUUUUUUUUUUUU N
bUUUUUUUUUUUUUUUU O
bUUUUUUUU P
1Q
b00000000000000000000000000000000 R
b00000000000000000100000000100001 S
bZZZZZZZZZZZZZZZZZZZZZZZZZZZZZZZZ T
b0000 U
0V
0W
0X
0Y
0Z
1[
1\
0]
b00000000000000000000000000000000 ^
bZZZZZZZZZZZZZZZZZZZZZZZZZZZZZZZZ _
b00000000000000000100000000100001 `
b0000 a
0b
0c
b00000000000000000000000000000000 d
b000000 e
b000000 f
b000000 g
b000000 h
b00000000000000000000000000000000 i
b00000000000000000000000000000000 j
bUUUUUUUUUUUUUUUUUUUUUUUUUUUUUUUU k
bUUUUUUUUUUUUUUUUUUUUUUUUUUUUUUUU l
b00000000000000000000000000000000 m
bUUUUUUUUUUUUUUUUUUUUUUUUUUUUUUUU n
b00000000000000000000000000000000 o
bUUUUUUUUUUUUUUUUUUUUUUUUUUUUUUUU p
bUUUUUUUUUUUUUUUUUUUUUUUUUUUUUUUU q
b00000000000000000000000000000000 r
bUUUUUUUUUUUUUUUUUUUUUUUUUUUUUUUU s
b00000000000000000000000000000000 t
b00000000000000000000000000000000 u
b0000000000000000 v
b00000000000000000000000000000000 w
b00000000000000000000000000000100 x
b0000 y
bUUUU z
b01 {
bUU |
b0000 }
bUUUU !"
b010 ""
1#"
b01 $"
b00 %"
b001 &"
b00 '"
b0000 ("
0)"
0*"
0+"
0,"
0-"
0."
0/"
00"
U1"
b0000 2"
13"
14"
15"
bUUUUUUUUUUUUUUUUUUUUUUUUUUUUUU 6"
17"
08"
b00000000000000000000000000 9"
b00 :"
b00000000000000000000000000000000 ;"
b00000000000000000000000000000100 <"
b000000000000000000000000000000 ="
1>"
1?"
0@"
0A"
b00000000000000000000000000000000 B"
b00000000000000000000000000000000 C"
bUUUUUUUUUUUUUUUUUUUUUUUUUUUUUUUU D"
b0000 E"
b00000000000000000000000000000000 F"
b00000000000000000000000000000000 G"
0H"
b00000000000000000000000000000000 I"
bZZZZZZZZZZZZZZZZZZZZZZZZZZZZZZZZ J"
b00000000000000000100000000100001 K"
b0000 L"
0M"
b00000000000000000000000000000000 N"
b00000000000000000000000000000000 O"
b00 P"
bUUUUUUUUUUUUUUUUUUUUUUUUUUUUUUUU Q"
0R"
b0000 S"
b00000000000000000000000000000000 T"
UU"
b000000 V"
b000000 W"
b000000 X"
b0000000000000000 Y"
b0000 Z"
b01 ["
b0000 \"
b010 ]"
b01 ^"
b00 _"
b001 `"
b00 a"
b0000 b"
1c"
1d"
0e"
b000000 f"
b000000 g"
b000000 h"
b00000000000000000000000000000000 i"
b00000000000000000000000000000000 j"
bUUUUUUUUUUUUUUUUUUUUUUUUUUUUUUUU k"
0l"
0m"
b00000 n"
b00000 o"
b00000 p"
bUUUUUUUUUUUUUUUUUUUUUUUUUUUUUUUU q"
bUUUUUUUUUUUUUUUUUUUUUUUUUUUUUUUU r"
0s"
b0000000000000000 t"
b00000000000000000000000000000000 u"
b01 v"
b00000000000000000000000000000000 w"
b00000000000000000000000000000000 x"
b00 y"
b00000000000000000000000000000000 z"
bUUUUUUUUUUUUUUUUUUUUUUUUUUUUUUUU {"
b00000000000000000000000000000000 |"
b00000000000000000000000000000000 }"
b00000000000000000000000000000100 !#
b001 "#
bUUUUUUUUUUUUUUUUUUUUUUUUUUUUUUUU ##
b010 $#
1%#
bUUUUUUUUUUUUUUUUUUUUUUUUUUUUUUUU &#
bUUUUUUUUUUUUUUUUUUUUUUUUUUUUUUUU '#
bUUUU (#
b00000000000000000000000000000000 )#
bUUUUUUUUUUUUUUUUUUUUUUUUUUUUUUUUU *#
bUUUUUUUUUUUUUUUUUUUUUUUUUUUUUUUUU +#
bUUUUUUUUUUUUUUUUUUUUUUUUUUUUUUUUU ,#
0-#
bUUUUUUUUUUUUUUUUUUUUUUUUUUUUUUUU .#
bUUUUU /#
bUU 0#
bUUUUUUUUUUUUUUUUUUUUUUUUUUUUUUUU 1#
12#
bUUUUUUUUUUUUUUUUUUUUUUUUUUUUUUUU 3#
bUUUUUUUUUUUUUUUUUUUUUUUUUUUUUUUU 4#
bUUUU 5#
b00000000000000000000000000000000 6#
07#
U8#
U9#
bUUUUUU :#
bUUUUUUUUUUUUUUUUUUUUUUUUUUUUUUUU ;#
bUUUUUUUUUUUUUUUUUUUUUUUUUUUUUUUUUUUUUUUUUUUUUUUUUUUUUUUUUUUUUUUU <#
bUUUUUUUUUUUUUUUUUUUUUUUUUUUUUUUU =#
bUUUUUUUUUUUUUUUUUUUUUUUUUUUUUUUUUU >#
bUUUUUUUUUUUUUUUUUUUUUUUUUUUUUUUUUU ?#
bXXXXXXXXXXXXXXXXXXXXXXXXXXXXXXXXXX @#
bUUUUUUUUUUUUUUUUUUUUUUUUUUUUUUUUUU A#
1B#
1C#
b00000000000000000000000000000000 D#
bUUUUUUUUUUUUUUUUUUUUUUUUUUUUUUUU E#
b00000000000000000000000000000000 F#
bUUUUUUUUUUUUUUUUUUUUUUUUUUUUUUUU G#
b0000 H#
bUUUU I#
b01 J#
bUU K#
b0000 L#
bUUUU M#
bUUUUUUUUUUUUUUUUUUUUUUUUUUUUUUUU N#
bUUUUUUUUUUUUUUUUUUUUUUUUUUUUUUUU O#
b000000 P#
b000000 Q#
b000000 R#
b000000 S#
b00 T#
b0000 U#
b01 V#
b00 W#
b001 X#
bUUUUUUUUUUUUUUUUUUUUUUUUUUUUUUUU Y#
0Z#
0[#
b000000 \#
bUUUUUUUUUUUUUUUUUUUUUUUUUUUUUUUU ]#
bUUU ^#
1_#
1`#
b0000 a#
0b#
b00000000000000000000000000000000 c#
bZZZZZZZZZZZZZZZZZZZZZZZZZZZZZZZZ d#
b00000000000000000100000000100001 e#
0f#
1g#
1h#
0i#
0j#
0k#
0l#
b0000000000000000000 m#
b0000000000000000000 n#
bUUUUUUUUUUUUUUUU o#
bUUUUUUUUUUUUUUUU p#
bUUUUUUUUUUUUUUUUUUUUUUUUUUUUUUUU q#
b00000000000000000100000000100001 r#
1s#
1t#
b0000 u#
0v#
b00000000000000000000000000000000 w#
bZZZZZZZZZZZZZZZZZZZZZZZZZZZZZZZZ x#
b00000000000000000100000000100001 y#
0z#
U{#
U|#
0}#
1!$
bUUUUUUUU "$
b-------- #$
0$$
U%$
0&$
bUUUUUUUU '$
U($
0)$
bUUUUUUUU *$
bZZZZZZZZZZZZZZZZZZZZZZZZZZZZZZZZ +$
1,$
1-$
U.$
U/$
00$
11$
b-------- 2$
03$
U4$
05$
bUUUUUUUU 6$
U7$
08$
bUUUUUUUU 9$
1:$
b0000 ;$
0<$
b00000000000000000000000000000000 =$
bZZZZZZZZZZZZZZZZZZZZZZZZZZZZZZZZ >$
bUUUUUUUUUUUUUUUUUUUUUUUUUUUUUUUU ?$
1@$
1A$
0B$
0C$
0D$
0E$
b0000000000000000000 F$
b0000000000000000000 G$
bUUUUUUUUUUUUUUUU H$
bUUUUUUUUUUUUUUUU I$
1J$
b0000 K$
0L$
b00000000000000000000000000000000 M$
bZZZZZZZZZZZZZZZZZZZZZZZZZZZZZZZZ N$
bUUUUUUUUUUUUUUUUUUUUUUUUUUUUUUUU O$
0P$
1Q$
1R$
b0000 S$
1T$
1U$
b1111 V$
1W$
b00000000000010000000000000000000 X$
b00000000000000000000000000100000 Y$
bZZZZZZZZZZZZZZZZZZZZZZZZZZZZZZZZ Z$
1[$
U\$
U]$
U^$
U_$
bUUUUUUUU `$
b-------- a$
0b$
Uc$
0d$
bUUUUUUUU e$
Uf$
0g$
bUUUUUUUU h$
bZZZZZZZZZZZZZZZZZZZZZZZZZZZZZZZZ i$
1j$
1k$
Ul$
Um$
Un$
Uo$
b-------- p$
0q$
Ur$
0s$
bUUUUUUUU t$
Uu$
0v$
bUUUUUUUU w$
#75000000
0!
0@
0[
04"
0>"
0c"
02#
0B#
0`#
0s#
0-$
0:$
0J$
1P$
0T$
0k$
#150000000
1!
1$
1%
1&
1(
1@
1B
1C
1[
14"
1>"
1c"
12#
1B#
1`#
1s#
1{#
1|#
0%$
b00000000 '$
0($
b00000000 *$
1-$
1.$
1/$
04$
b00000000 6$
07$
b00000000 9$
1:$
1J$
0P$
1T$
1[$
1\$
1]$
1^$
1_$
0c$
b00000000 e$
0f$
b00000000 h$
1k$
1l$
1m$
1n$
1o$
0r$
b00000000 t$
0u$
b00000000 w$
#225000000
0!
0@
0[
04"
0>"
0c"
02#
0B#
0`#
0s#
0-$
0:$
0J$
1P$
0T$
0k$
#300000000
1!
1@
1[
14"
1>"
1c"
12#
1B#
1`#
1s#
1-$
1:$
1J$
0P$
1T$
1k$
#375000000
0!
0@
0[
04"
0>"
0c"
02#
0B#
0`#
0s#
0-$
0:$
0J$
1P$
0T$
0k$
#450000000
1!
1@
1[
14"
1>"
1c"
12#
1B#
1`#
1s#
1-$
1:$
1J$
0P$
1T$
1k$
#525000000
0!
0@
0[
04"
0>"
0c"
02#
0B#
0`#
0s#
0-$
0:$
0J$
1P$
0T$
0k$
#600000000
1!
1@
1[
14"
1>"
1c"
12#
1B#
1`#
1s#
1-$
1:$
1J$
0P$
1T$
1k$
#675000000
0!
0@
0[
04"
0>"
0c"
02#
0B#
0`#
0s#
0-$
0:$
0J$
1P$
0T$
0k$
#750000000
1!
1@
1[
14"
1>"
1c"
12#
1B#
1`#
1s#
1-$
1:$
1J$
0P$
1T$
1k$
#825000000
0!
0@
0[
04"
0>"
0c"
02#
0B#
0`#
0s#
0-$
0:$
0J$
1P$
0T$
0k$
#900000000
1!
1@
1[
14"
1>"
1c"
12#
1B#
1`#
1s#
1-$
1:$
1J$
0P$
1T$
1k$
#975000000
0!
0@
0[
04"
0>"
0c"
02#
0B#
0`#
0s#
0-$
0:$
0J$
1P$
0T$
0k$
#1050000000
1!
1@
1[
14"
1>"
1c"
12#
1B#
1`#
1s#
1-$
1:$
1J$
0P$
1T$
1k$
#1125000000
0!
0@
0[
04"
0>"
0c"
02#
0B#
0`#
0s#
0-$
0:$
0J$
1P$
0T$
0k$
#1200000000
1!
1@
1[
14"
1>"
1c"
12#
1B#
1`#
1s#
1-$
1:$
1J$
0P$
1T$
1k$
#1275000000
0!
0@
0[
04"
0>"
0c"
02#
0B#
0`#
0s#
0-$
0:$
0J$
1P$
0T$
0k$
#1350000000
1!
1@
1[
14"
1>"
1c"
12#
1B#
1`#
1s#
1-$
1:$
1J$
0P$
1T$
1k$
#1425000000
0!
0@
0[
04"
0>"
0c"
02#
0B#
0`#
0s#
0-$
0:$
0J$
1P$
0T$
0k$
#1500000000
1!
0"
1#
1@
1A
0Q
1[
0\
14"
1>"
1c"
12#
1B#
1`#
1s#
0t#
0,$
1-$
1:$
1J$
0P$
1T$
0U$
1[$
b00100000 a$
1d$
0j$
1k$
b00100000 p$
1s$
#1575000000
0!
0@
0[
04"
0>"
0c"
02#
0B#
0`#
0s#
0-$
0:$
0J$
1P$
0T$
0k$
#1650000000
1!
1@
1[
01"
b0001 2"
14"
1>"
0U"
1c"
12#
1B#
1`#
1s#
1-$
1:$
1J$
0P$
1T$
1[$
b-------- a$
1b$
0d$
1k$
b-------- p$
1q$
0s$
#1725000000
0!
0@
0[
04"
0>"
0c"
02#
0B#
0`#
0s#
0-$
0:$
0J$
1P$
0T$
0k$
#1800000000
1!
1@
1[
b0010 2"
14"
1>"
1c"
12#
1B#
1`#
1s#
1-$
1:$
1J$
0P$
1T$
1k$
#1875000000
0!
0@
0[
04"
0>"
0c"
02#
0B#
0`#
0s#
0-$
0:$
0J$
1P$
0T$
0k$
#1950000000
1!
1@
1[
b0011 2"
14"
1>"
1c"
12#
1B#
1`#
1s#
1-$
1:$
1J$
0P$
1T$
1k$
#2025000000
0!
0@
0[
04"
0>"
0c"
02#
0B#
0`#
0s#
0-$
0:$
0J$
1P$
0T$
0k$
#2100000000
1!
1@
1[
b0100 2"
14"
1>"
1c"
12#
1B#
1`#
1s#
1-$
1:$
1J$
0P$
1T$
1k$
#2175000000
0!
0@
0[
04"
0>"
0c"
02#
0B#
0`#
0s#
0-$
0:$
0J$
1P$
0T$
0k$
#2250000000
1!
1@
1[
b0101 2"
14"
1>"
1c"
12#
1B#
1`#
1s#
1-$
1:$
1J$
0P$
1T$
1k$
#2325000000
0!
0@
0[
04"
0>"
0c"
02#
0B#
0`#
0s#
0-$
0:$
0J$
1P$
0T$
0k$
#2400000000
1!
1@
1[
b0110 2"
14"
1>"
1c"
12#
1B#
1`#
1s#
1-$
1:$
1J$
0P$
1T$
1k$
#2475000000
0!
0@
0[
04"
0>"
0c"
02#
0B#
0`#
0s#
0-$
0:$
0J$
1P$
0T$
0k$
#2550000000
1!
1@
1[
b0111 2"
14"
1>"
1c"
12#
1B#
1`#
1s#
1-$
1:$
1J$
0P$
1T$
1k$
#2625000000
0!
0@
0[
04"
0>"
0c"
02#
0B#
0`#
0s#
0-$
0:$
0J$
1P$
0T$
0k$
#2700000000
1!
1@
1[
b1000 2"
14"
1>"
1c"
12#
1B#
1`#
1s#
1-$
1:$
1J$
0P$
1T$
1k$
#2775000000
0!
0@
0[
04"
0>"
0c"
02#
0B#
0`#
0s#
0-$
0:$
0J$
1P$
0T$
0k$
#2850000000
1!
1@
1[
b1001 2"
14"
1>"
1c"
12#
1B#
1`#
1s#
1-$
1:$
1J$
0P$
1T$
1k$
#2925000000
0!
0@
0[
04"
0>"
0c"
02#
0B#
0`#
0s#
0-$
0:$
0J$
1P$
0T$
0k$
#3000000000
1!
1@
1[
b1010 2"
14"
1>"
1c"
12#
1B#
1`#
1s#
1-$
1:$
1J$
0P$
1T$
1k$
